Project 1: Exploratory Data Analysis
…
## # A tibble: 5 x 4
##   Position mean_cashearnedpergame min_cashearnedpergame max_cashearnedpergame
##   <chr>                     <dbl>                 <dbl>                 <dbl>
## 1 C                       233291.                28014                593220 
## 2 PF                      215980.                53395.               403297.
## 3 PG                      261079.                26234                505800 
## 4 SF                      242793.                16336                493519.
## 5 SG                      425158.                41082               2066134.

data2 %>% group_by(Team) %>% summarise(mean_rank = mean(Player.Rank), 
    sd_rank = sd(Player.Rank))

## # A tibble: 28 x 3
##    Team  mean_rank sd_rank
##    <chr>     <dbl>   <dbl>
##  1 BKN        95      NA  
##  2 BOS        37.7    24.9
##  3 CHA        52.5    29.0
##  4 CHI        84      NA  
##  5 CLE        31      NA  
##  6 DAL        43      NA  
##  7 DEN        51.5    14.4
##  8 DET        61.3    31.0
##  9 GSW        32.5    36.1
## 10 HOU        24      21.6
## # … with 18 more rows

data2 %>% group_by(Team) %>% summarise(mean_cash = mean(CashEarnedPerGame))

## # A tibble: 28 x 2
##    Team  mean_cash
##    <chr>     <dbl>
##  1 BKN      94307.
##  2 BOS     252196.
##  3 CHA     356026.
##  4 CHI      79856 
##  5 CLE     513917.
##  6 DAL     111656 
##  7 DEN     672334.
##  8 DET     307846.
##  9 GSW     302123.
## 10 HOU     237950.
## # … with 18 more rows

data2 %>% summarise(n_distinct(Position))

##   n_distinct(Position)
## 1                    5

data2 %>% group_by(Team) %>% summarise(max_cash = max(CashEarnedPerGame))

## # A tibble: 28 x 2
##    Team  max_cash
##    <chr>    <dbl>
##  1 BKN     94307.
##  2 BOS    505800 
##  3 CHA    369966 
##  4 CHI     79856 
##  5 CLE    513917.
##  6 DAL    111656 
##  7 DEN   2066134.
##  8 DET    403297.
##  9 GSW    492479 
## 10 HOU    359690 
## # … with 18 more rows

data2 %>% group_by(Team, Injury) %>% summarize(mean_missed = mean(Games.Missed))

## # A tibble: 81 x 3
## # Groups:   Team [28]
##    Team  Injury   mean_missed
##    <chr> <chr>          <dbl>
##  1 BKN   Illness         13  
##  2 BOS   Calf            14  
##  3 BOS   Illness          3.5
##  4 BOS   Knee            11  
##  5 BOS   Personal         1  
##  6 CHA   Illness         19  
##  7 CHA   Knee            13  
##  8 CHI   Groin           15  
##  9 CLE   Heel             7  
## 10 DAL   Ankle            8  
## # … with 71 more rows

data2 %>% group_by(Team, Injury) %>% summarize(mean_missed = mean(Games.Missed)) %>% 
    pivot_wider(names_from = Injury, values_from = mean_missed)

## # A tibble: 28 x 20
## # Groups:   Team [28]
##    Team  Illness  Calf  Knee Personal Groin  Heel Ankle  Back Thigh Hamstring
##    <chr>   <dbl> <dbl> <dbl>    <dbl> <dbl> <dbl> <dbl> <dbl> <dbl>     <dbl>
##  1 BKN      13      NA    NA       NA    NA    NA  NA      NA    NA        NA
##  2 BOS       3.5    14    11        1    NA    NA  NA      NA    NA        NA
##  3 CHA      19      NA    13       NA    NA    NA  NA      NA    NA        NA
##  4 CHI      NA      NA    NA       NA    15    NA  NA      NA    NA        NA
##  5 CLE      NA      NA    NA       NA    NA     7  NA      NA    NA        NA
##  6 DAL      NA      NA    NA       NA    NA    NA   8      NA    NA        NA
##  7 DEN      NA      NA     6        2    NA    NA  15.5    NA    NA        NA
##  8 DET      NA       8    47       NA    NA    NA  NA      42    NA        NA
##  9 GSW      60      NA    46       50    NA    64  NA      NA    NA        NA
## 10 HOU      NA      NA    30        1    NA    25  NA      NA     3        NA
## # … with 18 more rows, and 9 more variables: Concussion <dbl>, Neck <dbl>,
## #   Shoulder <dbl>, Wrist <dbl>, Elbow <dbl>, Thumb <dbl>, Forearm <dbl>,
## #   Foot <dbl>, Leg <dbl>
…
